#-----------------------------------------------------------
# Vivado v2016.4 (64-bit)
# SW Build 1756540 on Mon Jan 23 19:11:23 MST 2017
# IP Build 1755317 on Mon Jan 23 20:30:07 MST 2017
# Start of session at: Mon Dec 04 13:28:39 2017
# Process ID: 16376
# Current directory: C:/Users/geova/Desktop/ULAProgramavel - Copia
# Command line: vivado.exe -gui_launcher_event rodinguilauncherevent15060 C:\Users\geova\Desktop\ULAProgramavel - Copia\project_ula.xpr
# Log file: C:/Users/geova/Desktop/ULAProgramavel - Copia/vivado.log
# Journal file: C:/Users/geova/Desktop/ULAProgramavel - Copia\vivado.jou
#-----------------------------------------------------------
start_gui
open_project {C:/Users/geova/Desktop/ULAProgramavel - Copia/project_ula.xpr}
INFO: [Project 1-313] Project file moved from 'C:/Users/geova/Desktop/ULAProgramavel' since last save.
Scanning sources...
Finished scanning sources
WARNING: [Project 1-509] GeneratedRun file for 'synth_1' not found
WARNING: [Project 1-509] GeneratedRun file for 'impl_1' not found
INFO: [filemgmt 56-1] IPUserFilesDir: Directory not found as 'C:/Users/geova/Desktop/ULAProgramavel - Copia/project_ula.ip_user_files'; using path 'C:/Users/geova/Desktop/ULAProgramavel/project_ula.ip_user_files' instead.
INFO: [IP_Flow 19-234] Refreshing IP repositories
INFO: [IP_Flow 19-1704] No user IP repositories specified
INFO: [IP_Flow 19-2313] Loaded Vivado IP repository 'C:/Xilinx/Vivado/2016.4/data/ip'.
open_project: Time (s): cpu = 00:00:24 ; elapsed = 00:00:40 . Memory (MB): peak = 682.840 ; gain = 82.871
launch_runs impl_1 -to_step write_bitstream -jobs 2
[Mon Dec 04 14:04:31 2017] Launched synth_1...
Run output will be captured here: C:/Users/geova/Desktop/ULAProgramavel - Copia/project_ula.runs/synth_1/runme.log
[Mon Dec 04 14:04:31 2017] Launched impl_1...
Run output will be captured here: C:/Users/geova/Desktop/ULAProgramavel - Copia/project_ula.runs/impl_1/runme.log
launch_runs: Time (s): cpu = 00:00:01 ; elapsed = 00:00:10 . Memory (MB): peak = 732.762 ; gain = 0.000
reset_run synth_1
launch_runs impl_1 -to_step write_bitstream -jobs 2
[Mon Dec 04 14:06:23 2017] Launched synth_1...
Run output will be captured here: C:/Users/geova/Desktop/ULAProgramavel - Copia/project_ula.runs/synth_1/runme.log
[Mon Dec 04 14:06:23 2017] Launched impl_1...
Run output will be captured here: C:/Users/geova/Desktop/ULAProgramavel - Copia/project_ula.runs/impl_1/runme.log
reset_run synth_1
launch_runs impl_1 -to_step write_bitstream -jobs 2
[Mon Dec 04 14:09:30 2017] Launched synth_1...
Run output will be captured here: C:/Users/geova/Desktop/ULAProgramavel - Copia/project_ula.runs/synth_1/runme.log
[Mon Dec 04 14:09:30 2017] Launched impl_1...
Run output will be captured here: C:/Users/geova/Desktop/ULAProgramavel - Copia/project_ula.runs/impl_1/runme.log
reset_run synth_1
launch_runs impl_1 -to_step write_bitstream -jobs 2
[Mon Dec 04 14:15:44 2017] Launched synth_1...
Run output will be captured here: C:/Users/geova/Desktop/ULAProgramavel - Copia/project_ula.runs/synth_1/runme.log
[Mon Dec 04 14:15:44 2017] Launched impl_1...
Run output will be captured here: C:/Users/geova/Desktop/ULAProgramavel - Copia/project_ula.runs/impl_1/runme.log
exit
INFO: [Common 17-206] Exiting Vivado at Mon Dec 04 14:21:43 2017...
